<?xml version="1.0" encoding="UTF-8" standalone="no"?>
<svg width="26px" height="39px" viewBox="0 0 26 39" version="1.1" xmlns="http://www.w3.org/2000/svg" xmlns:xlink="http://www.w3.org/1999/xlink" xmlns:sketch="http://www.bohemiancoding.com/sketch/ns">
    <!-- Generator: Sketch 3.2.1 (9977) - http://www.bohemiancoding.com/sketch -->
    <title>Slice 1</title>
    <desc>Created with Sketch.</desc>
    <defs></defs>
    <g id="Page-1" stroke="none" stroke-width="1" fill="none" fill-rule="evenodd" sketch:type="MSPage">
        <g id="bean" sketch:type="MSLayerGroup" fill="#000000">
            <g id="Page-1" sketch:type="MSShapeGroup">
                <g id="Artboard" transform="translate(0.476439, 0.281417)">
                    <path d="M21.2178974,14.0554967 C12.4867067,22.7703403 13.9014908,38.5066678 5.83606159,37.0554959 C-0.630908659,35.8919267 -3.66784478,25.374832 7.18274083,8.34358254 C18.0333264,-8.68766689 31.2673175,4.02489166 21.2178974,14.0554967 Z" id="Rectangle-2"></path>
                </g>
            </g>
        </g>
    </g>
</svg>